unit_tests/ahb_gpio/dump.vcd
$date
	Wed Nov 16 16:09:16 2022
$end
$version
	QuestaSim Version 10.7c
$end
$timescale
	1ps
$end

$scope module tbench_top $end
$var reg 1 ! clk $end
$var reg 1 " reset_n $end

$scope module t1 $end
$var parameter 32 # NUM_TRANSACTIONS $end
$upscope $end

$scope module DUT $end
$var parameter 16 $ GPIO_DATA_ADDR $end
$var parameter 16 % GPIO_DIR_ADDR $end
$var wire 1 & HCLK $end
$var wire 1 ' HRESETn $end
$var wire 1 ( HADDR [31] $end
$var wire 1 ) HADDR [30] $end
$var wire 1 * HADDR [29] $end
$var wire 1 + HADDR [28] $end
$var wire 1 , HADDR [27] $end
$var wire 1 - HADDR [26] $end
$var wire 1 . HADDR [25] $end
$var wire 1 / HADDR [24] $end
$var wire 1 0 HADDR [23] $end
$var wire 1 1 HADDR [22] $end
$var wire 1 2 HADDR [21] $end
$var wire 1 3 HADDR [20] $end
$var wire 1 4 HADDR [19] $end
$var wire 1 5 HADDR [18] $end
$var wire 1 6 HADDR [17] $end
$var wire 1 7 HADDR [16] $end
$var wire 1 8 HADDR [15] $end
$var wire 1 9 HADDR [14] $end
$var wire 1 : HADDR [13] $end
$var wire 1 ; HADDR [12] $end
$var wire 1 < HADDR [11] $end
$var wire 1 = HADDR [10] $end
$var wire 1 > HADDR [9] $end
$var wire 1 ? HADDR [8] $end
$var wire 1 @ HADDR [7] $end
$var wire 1 A HADDR [6] $end
$var wire 1 B HADDR [5] $end
$var wire 1 C HADDR [4] $end
$var wire 1 D HADDR [3] $end
$var wire 1 E HADDR [2] $end
$var wire 1 F HADDR [1] $end
$var wire 1 G HADDR [0] $end
$var wire 1 H HTRANS [1] $end
$var wire 1 I HTRANS [0] $end
$var wire 1 J HWDATA [31] $end
$var wire 1 K HWDATA [30] $end
$var wire 1 L HWDATA [29] $end
$var wire 1 M HWDATA [28] $end
$var wire 1 N HWDATA [27] $end
$var wire 1 O HWDATA [26] $end
$var wire 1 P HWDATA [25] $end
$var wire 1 Q HWDATA [24] $end
$var wire 1 R HWDATA [23] $end
$var wire 1 S HWDATA [22] $end
$var wire 1 T HWDATA [21] $end
$var wire 1 U HWDATA [20] $end
$var wire 1 V HWDATA [19] $end
$var wire 1 W HWDATA [18] $end
$var wire 1 X HWDATA [17] $end
$var wire 1 Y HWDATA [16] $end
$var wire 1 Z HWDATA [15] $end
$var wire 1 [ HWDATA [14] $end
$var wire 1 \ HWDATA [13] $end
$var wire 1 ] HWDATA [12] $end
$var wire 1 ^ HWDATA [11] $end
$var wire 1 _ HWDATA [10] $end
$var wire 1 ` HWDATA [9] $end
$var wire 1 a HWDATA [8] $end
$var wire 1 b HWDATA [7] $end
$var wire 1 c HWDATA [6] $end
$var wire 1 d HWDATA [5] $end
$var wire 1 e HWDATA [4] $end
$var wire 1 f HWDATA [3] $end
$var wire 1 g HWDATA [2] $end
$var wire 1 h HWDATA [1] $end
$var wire 1 i HWDATA [0] $end
$var wire 1 j HWRITE $end
$var wire 1 k HSEL $end
$var wire 1 l HREADY $end
$var wire 1 m GPIOIN [16] $end
$var wire 1 n GPIOIN [15] $end
$var wire 1 o GPIOIN [14] $end
$var wire 1 p GPIOIN [13] $end
$var wire 1 q GPIOIN [12] $end
$var wire 1 r GPIOIN [11] $end
$var wire 1 s GPIOIN [10] $end
$var wire 1 t GPIOIN [9] $end
$var wire 1 u GPIOIN [8] $end
$var wire 1 v GPIOIN [7] $end
$var wire 1 w GPIOIN [6] $end
$var wire 1 x GPIOIN [5] $end
$var wire 1 y GPIOIN [4] $end
$var wire 1 z GPIOIN [3] $end
$var wire 1 { GPIOIN [2] $end
$var wire 1 | GPIOIN [1] $end
$var wire 1 } GPIOIN [0] $end
$var wire 1 ~ PARITYSEL $end
$var wire 1 !! HREADYOUT $end
$var wire 1 "! HRDATA [31] $end
$var wire 1 #! HRDATA [30] $end
$var wire 1 $! HRDATA [29] $end
$var wire 1 %! HRDATA [28] $end
$var wire 1 &! HRDATA [27] $end
$var wire 1 '! HRDATA [26] $end
$var wire 1 (! HRDATA [25] $end
$var wire 1 )! HRDATA [24] $end
$var wire 1 *! HRDATA [23] $end
$var wire 1 +! HRDATA [22] $end
$var wire 1 ,! HRDATA [21] $end
$var wire 1 -! HRDATA [20] $end
$var wire 1 .! HRDATA [19] $end
$var wire 1 /! HRDATA [18] $end
$var wire 1 0! HRDATA [17] $end
$var wire 1 1! HRDATA [16] $end
$var wire 1 2! HRDATA [15] $end
$var wire 1 3! HRDATA [14] $end
$var wire 1 4! HRDATA [13] $end
$var wire 1 5! HRDATA [12] $end
$var wire 1 6! HRDATA [11] $end
$var wire 1 7! HRDATA [10] $end
$var wire 1 8! HRDATA [9] $end
$var wire 1 9! HRDATA [8] $end
$var wire 1 :! HRDATA [7] $end
$var wire 1 ;! HRDATA [6] $end
$var wire 1 <! HRDATA [5] $end
$var wire 1 =! HRDATA [4] $end
$var wire 1 >! HRDATA [3] $end
$var wire 1 ?! HRDATA [2] $end
$var wire 1 @! HRDATA [1] $end
$var wire 1 A! HRDATA [0] $end
$var wire 1 B! GPIOOUT [16] $end
$var wire 1 C! GPIOOUT [15] $end
$var wire 1 D! GPIOOUT [14] $end
$var wire 1 E! GPIOOUT [13] $end
$var wire 1 F! GPIOOUT [12] $end
$var wire 1 G! GPIOOUT [11] $end
$var wire 1 H! GPIOOUT [10] $end
$var wire 1 I! GPIOOUT [9] $end
$var wire 1 J! GPIOOUT [8] $end
$var wire 1 K! GPIOOUT [7] $end
$var wire 1 L! GPIOOUT [6] $end
$var wire 1 M! GPIOOUT [5] $end
$var wire 1 N! GPIOOUT [4] $end
$var wire 1 O! GPIOOUT [3] $end
$var wire 1 P! GPIOOUT [2] $end
$var wire 1 Q! GPIOOUT [1] $end
$var wire 1 R! GPIOOUT [0] $end
$var wire 1 S! PARITYERR $end
$var reg 17 T! gpio_dataout [16:0] $end
$var reg 17 U! gpio_datain [16:0] $end
$var reg 16 V! gpio_dir [15:0] $end
$var reg 17 W! gpio_data_next [16:0] $end
$var reg 32 X! last_HADDR [31:0] $end
$var reg 2 Y! last_HTRANS [1:0] $end
$var reg 1 Z! last_HWRITE $end
$var reg 1 [! last_HSEL $end
$var wire 1 \! even_parity $end
$var wire 1 ]! observed_parity $end
$var wire 1 ^! expected_parity $end
$upscope $end

$scope module u0 $end
$var wire 1 & clk $end
$var wire 1 ' reset_n $end
$var wire 1 _! GPIO_OUT [16] $end
$var wire 1 `! GPIO_OUT [15] $end
$var wire 1 a! GPIO_OUT [14] $end
$var wire 1 b! GPIO_OUT [13] $end
$var wire 1 c! GPIO_OUT [12] $end
$var wire 1 d! GPIO_OUT [11] $end
$var wire 1 e! GPIO_OUT [10] $end
$var wire 1 f! GPIO_OUT [9] $end
$var wire 1 g! GPIO_OUT [8] $end
$var wire 1 h! GPIO_OUT [7] $end
$var wire 1 i! GPIO_OUT [6] $end
$var wire 1 j! GPIO_OUT [5] $end
$var wire 1 k! GPIO_OUT [4] $end
$var wire 1 l! GPIO_OUT [3] $end
$var wire 1 m! GPIO_OUT [2] $end
$var wire 1 n! GPIO_OUT [1] $end
$var wire 1 o! GPIO_OUT [0] $end
$var reg 17 p! GPIO_IN [16:0] $end
$var reg 17 q! temp [16:0] $end
$upscope $end
$upscope $end

$scope begin std $end
$upscope $end

$scope begin ahb_pkg $end
$var reg 32 r! AHB_DATA_ADDR [31:0] $end
$var reg 32 s! AHB_DIR_ADDR [31:0] $end
$var reg 1 t! PARITY_SEL $end
$upscope $end

$scope begin pkg $end
$upscope $end
$enddefinitions $end
#0
$dumpvars
b1010011000000000000000000000000 r!
b1010011000000000000000000000100 s!
0t!
0!
0"
b0 T!
b0 U!
b0 V!
bx W!
bx X!
bx Y!
xZ!
x[!
b0 p!
b0 q!
b10100 #
b0 $
b100 %
0\!
0]!
0^!
0'
0&
0~
0G
0F
0E
0D
0C
0B
0A
0@
0?
0>
0=
0<
0;
0:
09
08
07
06
05
04
03
02
01
00
0/
0.
0-
0,
0+
0*
0)
0(
0I
0H
0i
0h
0g
0f
0e
0d
0c
0b
0a
0`
0_
0^
0]
0\
0[
0Z
0Y
0X
0W
0V
0U
0T
0S
0R
0Q
0P
0O
0N
0M
0L
0K
0J
0j
0k
xl
0}
0|
0{
0z
0y
0x
0w
0v
0u
0t
0s
0r
0q
0p
0o
0n
0m
1!!
0A!
0@!
0?!
0>!
0=!
0<!
0;!
0:!
09!
08!
07!
06!
05!
04!
03!
02!
01!
z0!
z/!
z.!
z-!
z,!
z+!
z*!
z)!
z(!
z'!
z&!
z%!
z$!
z#!
z"!
0R!
0Q!
0P!
0O!
0N!
0M!
0L!
0K!
0J!
0I!
0H!
0G!
0F!
0E!
0D!
0C!
0B!
0S!
0o!
0n!
0m!
0l!
0k!
0j!
0i!
0h!
0g!
0f!
0e!
0d!
0c!
0b!
0a!
0`!
0_!
$end
#5000
1!
1"
1&
1'
#10000
0!
0&
#15000
1!
1&
#20000
0!
0&
#25000
1!
1&
1k
1j
1H
1E
1/
1.
1+
1)
1l
#30000
0!
0&
#35000
1!
1&
b1010011000000000000000000000100 X!
b10 Y!
1Z!
1[!
0k
1i
1\!
1]!
1S!
#40000
0!
0&
#45000
1!
1&
0[!
b1 V!
1k
0i
1f
1e
1c
1b
1`
1_
1^
1[
1Z
0E
#50000
0!
0&
#55000
1!
1&
b1010011000000000000000000000000 X!
1[!
0k
0j
#60000
0!
0&
#65000
1!
1&
0Z!
0[!
b11100111011011000 T!
1O!
1N!
1L!
1K!
1I!
1H!
1G!
1D!
1C!
1B!
1l!
1k!
1i!
1h!
1f!
1e!
1d!
1a!
1`!
1_!
1k
1E
1j
#70000
0!
0&
#75000
1!
1&
b11100111011011000 q!
b11100111011011000 U!
b1010011000000000000000000000100 X!
1Z!
1[!
1^!
0S!
b11100111011011000 p!
1>!
1=!
1;!
1:!
18!
17!
16!
13!
12!
11!
1z
1y
1w
1v
1t
1s
1r
1o
1n
1m
0k
0f
0e
0c
0b
0`
0_
0^
0[
0Z
0\!
0]!
1S!
#80000
0!
0&
#85000
1!
1&
0[!
b0 V!
1k
0E
0j
#90000
0!
0&
#95000
1!
1&
b1010011000000000000000000000000 X!
0Z!
1[!
0k
#100000
0!
0&
#105000
1!
1&
0[!
1k
1E
1j
#110000
0!
0&
#115000
1!
1&
b1010011000000000000000000000100 X!
1Z!
1[!
0k
1i
1\!
1]!
0S!
#120000
0!
0&
#125000
1!
1&
0[!
b1 V!
1k
1h
1g
1`
1_
1^
1\
0E
#130000
0!
0&
#135000
1!
1&
b1010011000000000000000000000000 X!
1[!
0k
0j
#140000
0!
0&
#145000
1!
1&
0Z!
0[!
b10010111000000111 T!
1R!
1Q!
1P!
0O!
0N!
0L!
0K!
1E!
0D!
0C!
1o!
1n!
1m!
0l!
0k!
0i!
0h!
1b!
0a!
0`!
1k
1E
1j
#150000
0!
0&
#155000
1!
1&
b10010111000000111 q!
b10010111000000111 U!
b1010011000000000000000000000100 X!
1Z!
1[!
b10010111000000111 p!
1A!
1@!
1?!
0>!
0=!
0;!
0:!
14!
03!
02!
1}
1|
1{
0z
0y
0w
0v
1p
0o
0n
0k
0i
0h
0g
0`
0_
0^
0\
0\!
0]!
1S!
#160000
0!
0&
#165000
1!
1&
0[!
b0 V!
1k
0E
0j
#170000
0!
0&
#175000
1!
1&
b1010011000000000000000000000000 X!
0Z!
1[!
0k
#180000
0!
0&
#185000
1!
1&
0[!
1k
1E
1j
#190000
0!
0&
#195000
1!
1&
b1010011000000000000000000000100 X!
1Z!
1[!
0k
1i
1\!
1]!
0S!
#200000
0!
0&
#205000
1!
1&
0[!
b1 V!
1k
0i
1g
1e
1d
1c
1b
1\
1[
1Z
0E
0\!
0]!
1S!
#210000
0!
0&
#215000
1!
1&
b1010011000000000000000000000000 X!
1[!
0k
0j
#220000
0!
0&
#225000
1!
1&
0Z!
0[!
b1110000011110100 T!
0R!
0Q!
1N!
1M!
1L!
1K!
0I!
0H!
0G!
1D!
1C!
0B!
0o!
0n!
1k!
1j!
1i!
1h!
0f!
0e!
0d!
1a!
1`!
0_!
1k
1E
1j
#230000
0!
0&
#235000
1!
1&
b1110000011110100 q!
b1110000011110100 U!
b1010011000000000000000000000100 X!
1Z!
1[!
0^!
0S!
b1110000011110100 p!
0A!
0@!
1=!
1<!
1;!
1:!
08!
07!
06!
13!
12!
01!
0}
0|
1y
1x
1w
1v
0t
0s
0r
1o
1n
0m
0k
0g
0e
0d
0c
0b
0\
0[
0Z
#240000
0!
0&
#245000
1!
1&
0[!
b0 V!
1k
0E
0j
#250000
0!
0&
#255000
1!
1&
b1010011000000000000000000000000 X!
0Z!
1[!
0k
#260000
0!
0&
#265000
1!
1&
0[!
1k
1E
1j
#270000
0!
0&
#275000
1!
1&
b1010011000000000000000000000100 X!
1Z!
1[!
0k
1i
1\!
1]!
1S!
#280000
0!
0&
#285000
1!
1&
0[!
b1 V!
1k
1h
1d
1a
1_
1]
1\
1[
1Z
0E
#290000
0!
0&
#295000
1!
1&
b1010011000000000000000000000000 X!
1[!
0k
0j
#300000
0!
0&
#305000
1!
1&
0Z!
0[!
b11111010100100011 T!
1R!
1Q!
0P!
0N!
0L!
0K!
1J!
1H!
1F!
1B!
1o!
1n!
0m!
0k!
0i!
0h!
1g!
1e!
1c!
1_!
1k
1E
1j
#310000
0!
0&
#315000
1!
1&
b11111010100100011 q!
b11111010100100011 U!
b1010011000000000000000000000100 X!
1Z!
1[!
1^!
0S!
b11111010100100011 p!
1A!
1@!
0?!
0=!
0;!
0:!
19!
17!
15!
11!
1}
1|
0{
0y
0w
0v
1u
1s
1q
1m
0k
0i
0h
0d
0a
0_
0]
0\
0[
0Z
0\!
0]!
1S!
#320000
0!
0&
#325000
1!
1&
0[!
b0 V!
1k
0E
0j
#330000
0!
0&
#335000
1!
1&
b1010011000000000000000000000000 X!
0Z!
1[!
0k
#340000
0!
0&
#345000
1!
1&
0[!
1k
1E
1j
#350000
0!
0&
#355000
1!
1&
b1010011000000000000000000000100 X!
1Z!
1[!
0k
1i
1\!
1]!
0S!
#360000
0!
0&
#365000
1!
1&
0[!
b1 V!
1k
1h
1g
1f
1e
1d
1c
1a
1`
0E
#370000
0!
0&
#375000
1!
1&
b1010011000000000000000000000000 X!
1[!
0k
0j
#380000
0!
0&
#385000
1!
1&
0Z!
0[!
b10000001101111111 T!
1P!
1O!
1N!
1L!
1I!
0H!
0F!
0E!
0D!
0C!
1m!
1l!
1k!
1i!
1f!
0e!
0c!
0b!
0a!
0`!
1k
1E
1j
#390000
0!
0&
#395000
1!
1&
b10000001101111111 q!
b10000001101111111 U!
b1010011000000000000000000000100 X!
1Z!
1[!
b10000001101111111 p!
1?!
1>!
1=!
1;!
18!
07!
05!
04!
03!
02!
1{
1z
1y
1w
1t
0s
0q
0p
0o
0n
0k
0i
0h
0g
0f
0e
0d
0c
0a
0`
0\!
0]!
1S!
#400000
0!
0&
#405000
1!
1&
0[!
b0 V!
1k
0E
0j
#410000
0!
0&
#415000
1!
1&
b1010011000000000000000000000000 X!
0Z!
1[!
0k
#420000
0!
0&
#425000
1!
1&
0[!
1k
1E
1j
#430000
0!
0&
#435000
1!
1&
b1010011000000000000000000000100 X!
1Z!
1[!
0k
1i
1\!
1]!
0S!
#440000
0!
0&
#445000
1!
1&
0[!
b1 V!
1k
1g
1f
1`
1^
1[
1Z
0E
#450000
0!
0&
#455000
1!
1&
b1010011000000000000000000000000 X!
1[!
0k
0j
#460000
0!
0&
#465000
1!
1&
0Z!
0[!
b11100101000001101 T!
0Q!
0N!
0M!
0L!
0J!
1G!
1D!
1C!
0n!
0k!
0j!
0i!
0g!
1d!
1a!
1`!
1k
1E
1j
#470000
0!
0&
#475000
1!
1&
b11100101000001101 q!
b11100101000001101 U!
b1010011000000000000000000000100 X!
1Z!
1[!
b11100101000001101 p!
0@!
0=!
0<!
0;!
09!
16!
13!
12!
0|
0y
0x
0w
0u
1r
1o
1n
0k
0i
0g
0f
0`
0^
0[
0Z
0\!
0]!
1S!
#480000
0!
0&
#485000
1!
1&
0[!
b0 V!
1k
0E
0j
#490000
0!
0&
#495000
1!
1&
b1010011000000000000000000000000 X!
0Z!
1[!
0k
#500000
0!
0&
#505000
1!
1&
0[!
1k
1E
1j
#510000
0!
0&
#515000
1!
1&
b1010011000000000000000000000100 X!
1Z!
1[!
0k
1i
1\!
1]!
0S!
#520000
0!
0&
#525000
1!
1&
0[!
b1 V!
1k
1g
1`
1^
1\
0E
#530000
0!
0&
#535000
1!
1&
b1010011000000000000000000000000 X!
1[!
0k
0j
#540000
0!
0&
#545000
1!
1&
0Z!
0[!
b10010101000000101 T!
0O!
1E!
0D!
0C!
0l!
1b!
0a!
0`!
1k
1E
1j
#550000
0!
0&
#555000
1!
1&
b10010101000000101 q!
b10010101000000101 U!
b1010011000000000000000000000100 X!
1Z!
1[!
b10010101000000101 p!
0>!
14!
03!
02!
0z
1p
0o
0n
0k
0i
0g
0`
0^
0\
0\!
0]!
1S!
#560000
0!
0&
#565000
1!
1&
0[!
b0 V!
1k
0E
0j
#570000
0!
0&
#575000
1!
1&
b1010011000000000000000000000000 X!
0Z!
1[!
0k
#580000
0!
0&
#585000
1!
1&
0[!
1k
1E
1j
#590000
0!
0&
#595000
1!
1&
b1010011000000000000000000000100 X!
1Z!
1[!
0k
1i
1\!
1]!
0S!
#600000
0!
0&
#605000
1!
1&
0[!
b1 V!
1k
1g
1f
1e
1d
1b
1`
1_
1[
1Z
0E
0\!
0]!
1S!
#610000
0!
0&
#615000
1!
1&
b1010011000000000000000000000000 X!
1[!
0k
0j
#620000
0!
0&
#625000
1!
1&
0Z!
0[!
b1100011010111101 T!
1O!
1N!
1M!
1K!
1H!
0G!
0E!
1D!
1C!
0B!
1l!
1k!
1j!
1h!
1e!
0d!
0b!
1a!
1`!
0_!
1k
1E
1j
#630000
0!
0&
#635000
1!
1&
b1100011010111101 q!
b1100011010111101 U!
b1010011000000000000000000000100 X!
1Z!
1[!
0^!
0S!
b1100011010111101 p!
1>!
1=!
1<!
1:!
17!
06!
04!
13!
12!
01!
1z
1y
1x
1v
1s
0r
0p
1o
1n
0m
0k
0i
0g
0f
0e
0d
0b
0`
0_
0[
0Z
#640000
0!
0&
#645000
1!
1&
0[!
b0 V!
1k
0E
0j
#650000
0!
0&
#655000
1!
1&
b1010011000000000000000000000000 X!
0Z!
1[!
0k
#660000
0!
0&
#665000
1!
1&
0[!
1k
1E
1j
#670000
0!
0&
#675000
1!
1&
b1010011000000000000000000000100 X!
1Z!
1[!
0k
1i
1\!
1]!
1S!
#680000
0!
0&
#685000
1!
1&
0[!
b1 V!
1k
1h
1g
1e
1d
1c
1a
1]
1[
1Z
0E
0\!
0]!
0S!
#690000
0!
0&
#695000
1!
1&
b1010011000000000000000000000000 X!
1[!
0k
0j
#700000
0!
0&
#705000
1!
1&
0Z!
0[!
b1101000101110111 T!
1Q!
0O!
1L!
0K!
1J!
0I!
0H!
1F!
1n!
0l!
1i!
0h!
1g!
0f!
0e!
1c!
1k
1E
1j
#710000
0!
0&
#715000
1!
1&
b1101000101110111 q!
b1101000101110111 U!
b1010011000000000000000000000100 X!
1Z!
1[!
b1101000101110111 p!
1@!
0>!
1;!
0:!
19!
08!
07!
15!
1|
0z
1w
0v
1u
0t
0s
1q
0k
0i
0h
0g
0e
0d
0c
0a
0]
0[
0Z
#720000
0!
0&
#725000
1!
1&
0[!
b0 V!
1k
0E
0j
#730000
0!
0&
#735000
1!
1&
b1010011000000000000000000000000 X!
0Z!
1[!
0k
#740000
0!
0&
#745000
1!
1&
0[!
1k
1E
1j
#750000
0!
0&
#755000
1!
1&
b1010011000000000000000000000100 X!
1Z!
1[!
0k
1i
1\!
1]!
1S!
#760000
0!
0&
#765000
1!
1&
0[!
b1 V!
1k
1h
1f
1c
1a
1`
1]
1\
1[
1Z
0E
0\!
0]!
0S!
#770000
0!
0&
#775000
1!
1&
b1010011000000000000000000000000 X!
1[!
0k
0j
#780000
0!
0&
#785000
1!
1&
0Z!
0[!
b1111001101001011 T!
0P!
1O!
0N!
0M!
1I!
1E!
0m!
1l!
0k!
0j!
1f!
1b!
1k
1E
1j
#790000
0!
0&
#795000
1!
1&
b1111001101001011 q!
b1111001101001011 U!
b1010011000000000000000000000100 X!
1Z!
1[!
b1111001101001011 p!
0?!
1>!
0=!
0<!
18!
14!
0{
1z
0y
0x
1t
1p
0k
0i
0h
0f
0c
0a
0`
0]
0\
0[
0Z
#800000
0!
0&
#805000
1!
1&
0[!
b0 V!
1k
0E
0j
#810000
0!
0&
#815000
1!
1&
b1010011000000000000000000000000 X!
0Z!
1[!
0k
#820000
0!
0&
#825000
1!
1&
0[!
1k
1E
1j
#830000
0!
0&
#835000
1!
1&
b1010011000000000000000000000100 X!
1Z!
1[!
0k
1i
1\!
1]!
1S!
#840000
0!
0&
#845000
1!
1&
0[!
b1 V!
1k
0i
1f
1d
1c
1`
1_
1\
1[
1Z
0E
0\!
0]!
0S!
#850000
0!
0&
#855000
1!
1&
b1010011000000000000000000000000 X!
1[!
0k
0j
#860000
0!
0&
#865000
1!
1&
0Z!
0[!
b1110011001101000 T!
0R!
0Q!
1M!
0J!
1H!
0F!
0o!
0n!
1j!
0g!
1e!
0c!
1k
1E
1j
#870000
0!
0&
#875000
1!
1&
b1110011001101000 q!
b1110011001101000 U!
b1010011000000000000000000000100 X!
1Z!
1[!
b1110011001101000 p!
0A!
0@!
1<!
09!
17!
05!
0}
0|
1x
0u
1s
0q
0k
0f
0d
0c
0`
0_
0\
0[
0Z
#880000
0!
0&
#885000
1!
1&
0[!
b0 V!
1k
0E
0j
#890000
0!
0&
#895000
1!
1&
b1010011000000000000000000000000 X!
0Z!
1[!
0k
#900000
0!
0&
#905000
1!
1&
0[!
1k
1E
1j
#910000
0!
0&
#915000
1!
1&
b1010011000000000000000000000100 X!
1Z!
1[!
0k
1i
1\!
1]!
1S!
#920000
0!
0&
#925000
1!
1&
0[!
b1 V!
1k
0i
1h
1f
1e
1a
1`
1_
1^
1]
1\
1[
1Z
0E
#930000
0!
0&
#935000
1!
1&
b1010011000000000000000000000000 X!
1[!
0k
0j
#940000
0!
0&
#945000
1!
1&
0Z!
0[!
b11111111100011010 T!
1Q!
1N!
0M!
0L!
1J!
1G!
1F!
1B!
1n!
1k!
0j!
0i!
1g!
1d!
1c!
1_!
1k
1E
1j
#950000
0!
0&
#955000
1!
1&
b11111111100011010 q!
b11111111100011010 U!
b1010011000000000000000000000100 X!
1Z!
1[!
1^!
0S!
b11111111100011010 p!
1@!
1=!
0<!
0;!
19!
16!
15!
11!
1|
1y
0x
0w
1u
1r
1q
1m
0k
0h
0f
0e
0a
0`
0_
0^
0]
0\
0[
0Z
0\!
0]!
1S!
#960000
0!
0&
#965000
1!
1&
0[!
b0 V!
1k
0E
0j
#970000
0!
0&
#975000
1!
1&
b1010011000000000000000000000000 X!
0Z!
1[!
0k
#980000
0!
0&
#985000
1!
1&
0[!
1k
1E
1j
#990000
0!
0&
#995000
1!
1&
b1010011000000000000000000000100 X!
1Z!
1[!
0k
1i
1\!
1]!
0S!
#1000000
0!
0&
#1005000
1!
1&
0[!
b1 V!
1k
0i
1h
1g
1e
1d
1c
1b
1`
1_
1[
0E
#1010000
0!
0&
#1015000
1!
1&
b1010011000000000000000000000000 X!
1[!
0k
0j
#1020000
0!
0&
#1025000
1!
1&
0Z!
0[!
b10100011011110110 T!
1P!
0O!
1M!
1L!
1K!
0J!
0G!
0F!
0E!
0C!
1m!
0l!
1j!
1i!
1h!
0g!
0d!
0c!
0b!
0`!
1k
1E
1j
#1030000
0!
0&
#1035000
1!
1&
b10100011011110110 q!
b10100011011110110 U!
b1010011000000000000000000000100 X!
1Z!
1[!
b10100011011110110 p!
1?!
0>!
1<!
1;!
1:!
09!
06!
05!
04!
02!
1{
0z
1x
1w
1v
0u
0r
0q
0p
0n
0k
0h
0g
0e
0d
0c
0b
0`
0_
0[
0\!
0]!
1S!
#1040000
0!
0&
#1045000
1!
1&
0[!
b0 V!
1k
0E
0j
#1050000
0!
0&
#1055000
1!
1&
b1010011000000000000000000000000 X!
0Z!
1[!
0k
#1060000
0!
0&
#1065000
1!
1&
0[!
1k
1E
1j
#1070000
0!
0&
#1075000
1!
1&
b1010011000000000000000000000100 X!
1Z!
1[!
0k
1i
1\!
1]!
0S!
#1080000
0!
0&
#1085000
1!
1&
0[!
b1 V!
1k
0i
1g
1e
1d
1c
1`
1_
1^
1]
1\
0E
#1090000
0!
0&
#1095000
1!
1&
b1010011000000000000000000000000 X!
1[!
0k
0j
#1100000
0!
0&
#1105000
1!
1&
0Z!
0[!
b10011111001110100 T!
0Q!
0K!
1G!
1F!
1E!
0D!
0n!
0h!
1d!
1c!
1b!
0a!
1k
1E
1j
#1110000
0!
0&
#1115000
1!
1&
b10011111001110100 q!
b10011111001110100 U!
b1010011000000000000000000000100 X!
1Z!
1[!
b10011111001110100 p!
0@!
0:!
16!
15!
14!
03!
0|
0v
1r
1q
1p
0o
0k
0g
0e
0d
0c
0`
0_
0^
0]
0\
0\!
0]!
1S!
#1120000
0!
0&
#1125000
1!
1&
0[!
b0 V!
1k
0E
0j
#1130000
0!
0&
#1135000
1!
1&
b1010011000000000000000000000000 X!
0Z!
1[!
0k
#1140000
0!
0&
#1145000
1!
1&
0[!
1k
1E
1j
#1150000
0!
0&
#1155000
1!
1&
b1010011000000000000000000000100 X!
1Z!
1[!
0k
1i
1\!
1]!
0S!
#1160000
0!
0&
#1165000
1!
1&
0[!
b1 V!
1k
0i
1g
1f
1e
1b
1`
1]
1\
1[
0E
0\!
0]!
1S!
#1170000
0!
0&
#1175000
1!
1&
b1010011000000000000000000000000 X!
1[!
0k
0j
#1180000
0!
0&
#1185000
1!
1&
0Z!
0[!
b111001010011100 T!
1O!
0M!
0L!
1K!
0H!
0G!
1D!
0B!
1l!
0j!
0i!
1h!
0e!
0d!
1a!
0_!
1k
1E
1j
#1190000
0!
0&
#1195000
1!
1&
b111001010011100 q!
b111001010011100 U!
b1010011000000000000000000000100 X!
1Z!
1[!
0^!
0S!
b111001010011100 p!
1>!
0<!
0;!
1:!
07!
06!
13!
01!
1z
0x
0w
1v
0s
0r
1o
0m
0k
0g
0f
0e
0b
0`
0]
0\
0[
#1200000
0!
0&
#1205000
1!
1&
0[!
b0 V!
1k
0E
0j
#1210000
0!
0&
#1215000
1!
1&
b1010011000000000000000000000000 X!
0Z!
1[!
0k
#1220000
0!
0&
#1225000
1!
1&
0[!
1k
1E
1j
#1230000
0!
0&
#1235000
1!
1&
b1010011000000000000000000000100 X!
1Z!
1[!
0k
1i
1\!
1]!
1S!
#1240000
0!
0&
#1245000
1!
1&
0[!
b1 V!
1k
1h
1f
1e
1d
1c
1`
1_
1^
1]
1\
1[
0E
0\!
0]!
0S!
#1250000
0!
0&
#1255000
1!
1&
b1010011000000000000000000000000 X!
1[!
0k
0j
#1260000
0!
0&
#1265000
1!
1&
0Z!
0[!
b111111001111011 T!
1R!
1Q!
0P!
1M!
1L!
0K!
1H!
1G!
1o!
1n!
0m!
1j!
1i!
0h!
1e!
1d!
1k
1E
1j
#1270000
0!
0&
#1275000
1!
1&
b111111001111011 q!
b111111001111011 U!
b1010011000000000000000000000100 X!
1Z!
1[!
b111111001111011 p!
1A!
1@!
0?!
1<!
1;!
0:!
17!
16!
1}
1|
0{
1x
1w
0v
1s
1r
0k
0i
0h
0f
0e
0d
0c
0`
0_
0^
0]
0\
0[
#1280000
0!
0&
#1285000
1!
1&
0[!
b0 V!
1k
0E
0j
#1290000
0!
0&
#1295000
1!
1&
b1010011000000000000000000000000 X!
0Z!
1[!
0k
#1300000
0!
0&
#1305000
1!
1&
0[!
1k
1E
1j
#1310000
0!
0&
#1315000
1!
1&
b1010011000000000000000000000100 X!
1Z!
1[!
0k
1i
1\!
1]!
1S!
#1320000
0!
0&
#1325000
1!
1&
0[!
b1 V!
1k
0i
1h
1g
1f
1e
1_
1^
1\
1[
1Z
0E
#1330000
0!
0&
#1335000
1!
1&
b1010011000000000000000000000000 X!
1[!
0k
0j
#1340000
0!
0&
#1345000
1!
1&
0Z!
0[!
b11110110000011110 T!
0R!
1P!
0M!
0L!
0I!
0F!
1C!
1B!
0o!
1m!
0j!
0i!
0f!
0c!
1`!
1_!
1k
1E
1j
#1350000
0!
0&
#1355000
1!
1&
b11110110000011110 q!
b11110110000011110 U!
b1010011000000000000000000000100 X!
1Z!
1[!
1^!
0S!
b11110110000011110 p!
0A!
1?!
0<!
0;!
08!
05!
12!
11!
0}
1{
0x
0w
0t
0q
1n
1m
0k
0h
0g
0f
0e
0_
0^
0\
0[
0Z
0\!
0]!
1S!
#1360000
0!
0&
#1365000
1!
1&
0[!
b0 V!
1k
0E
0j
#1370000
0!
0&
#1375000
1!
1&
b1010011000000000000000000000000 X!
0Z!
1[!
0k
#1380000
0!
0&
#1385000
1!
1&
0[!
1k
1E
1j
#1390000
0!
0&
#1395000
1!
1&
b1010011000000000000000000000100 X!
1Z!
1[!
0k
1i
1\!
1]!
0S!
#1400000
0!
0&
#1405000
1!
1&
0[!
b1 V!
1k
1h
1g
1f
1d
1c
1b
1`
1\
1Z
0E
0\!
0]!
1S!
#1410000
0!
0&
#1415000
1!
1&
b1010011000000000000000000000000 X!
1[!
0k
0j
#1420000
0!
0&
#1425000
1!
1&
0Z!
0[!
b1010001011101111 T!
1R!
0N!
1M!
1L!
1K!
1I!
0H!
0G!
0D!
0B!
1o!
0k!
1j!
1i!
1h!
1f!
0e!
0d!
0a!
0_!
1k
1E
1j
#1430000
0!
0&
